<?xml version="1.0" encoding="UTF-8" standalone="no"?>
<!-- Created with Inkscape (http://www.inkscape.org/) -->

<svg
   xmlns:dc="http://purl.org/dc/elements/1.1/"
   xmlns:cc="http://creativecommons.org/ns#"
   xmlns:rdf="http://www.w3.org/1999/02/22-rdf-syntax-ns#"
   xmlns:svg="http://www.w3.org/2000/svg"
   xmlns="http://www.w3.org/2000/svg"
   xmlns:sodipodi="http://sodipodi.sourceforge.net/DTD/sodipodi-0.dtd"
   xmlns:inkscape="http://www.inkscape.org/namespaces/inkscape"
   width="210mm"
   height="297mm"
   id="svg6657"
   version="1.1"
   inkscape:version="0.47 r22583"
   sodipodi:docname="zfs_tree4.svg">
  <sodipodi:namedview
     inkscape:document-units="mm"
     id="base"
     pagecolor="#ffffff"
     bordercolor="#666666"
     borderopacity="1.0"
     inkscape:pageopacity="0.0"
     inkscape:pageshadow="2"
     inkscape:zoom="1.4"
     inkscape:cx="329.96088"
     inkscape:cy="791.95033"
     inkscape:current-layer="layer1"
     showgrid="false"
     inkscape:window-width="1440"
     inkscape:window-height="825"
     inkscape:window-x="0"
     inkscape:window-y="25"
     inkscape:window-maximized="1" />
  <defs
     id="defs3">
    <inkscape:perspective
       id="perspective6663"
       inkscape:persp3d-origin="372.04724 : 350.78739 : 1"
       inkscape:vp_z="744.09448 : 526.18109 : 1"
       inkscape:vp_y="0 : 1000 : 0"
       inkscape:vp_x="0 : 526.18109 : 1"
       sodipodi:type="inkscape:persp3d" />
    <inkscape:perspective
       sodipodi:type="inkscape:persp3d"
       inkscape:vp_x="0 : 0.5 : 1"
       inkscape:vp_y="0 : 1000 : 0"
       inkscape:vp_z="1 : 0.5 : 1"
       inkscape:persp3d-origin="0.5 : 0.33333333 : 1"
       id="perspective6673" />
    <marker
       style="overflow:visible"
       id="Arrow1Mend"
       refX="0"
       refY="0"
       orient="auto"
       inkscape:stockid="Arrow1Mend">
      <path
         transform="matrix(-0.4,0,0,-0.4,-4,0)"
         style="fill-rule:evenodd;stroke:#000000;stroke-width:1pt;marker-start:none"
         d="M 0,0 5,-5 -12.5,0 5,5 0,0 z"
         id="path3796" />
    </marker>
    <marker
       style="overflow:visible"
       id="marker6679"
       refX="0"
       refY="0"
       orient="auto"
       inkscape:stockid="Arrow1Mend">
      <path
         transform="matrix(-0.4,0,0,-0.4,-4,0)"
         style="fill-rule:evenodd;stroke:#000000;stroke-width:1pt;marker-start:none"
         d="M 0,0 5,-5 -12.5,0 5,5 0,0 z"
         id="path6681" />
    </marker>
    <marker
       style="overflow:visible"
       id="marker6683"
       refX="0"
       refY="0"
       orient="auto"
       inkscape:stockid="Arrow1Mend">
      <path
         transform="matrix(-0.4,0,0,-0.4,-4,0)"
         style="fill-rule:evenodd;stroke:#000000;stroke-width:1pt;marker-start:none"
         d="M 0,0 5,-5 -12.5,0 5,5 0,0 z"
         id="path6685" />
    </marker>
    <marker
       style="overflow:visible"
       id="marker6687"
       refX="0"
       refY="0"
       orient="auto"
       inkscape:stockid="Arrow1Mend">
      <path
         transform="matrix(-0.4,0,0,-0.4,-4,0)"
         style="fill-rule:evenodd;stroke:#000000;stroke-width:1pt;marker-start:none"
         d="M 0,0 5,-5 -12.5,0 5,5 0,0 z"
         id="path6689" />
    </marker>
    <marker
       style="overflow:visible"
       id="marker6691"
       refX="0"
       refY="0"
       orient="auto"
       inkscape:stockid="Arrow1Mend">
      <path
         transform="matrix(-0.4,0,0,-0.4,-4,0)"
         style="fill-rule:evenodd;stroke:#000000;stroke-width:1pt;marker-start:none"
         d="M 0,0 5,-5 -12.5,0 5,5 0,0 z"
         id="path6693" />
    </marker>
    <marker
       style="overflow:visible"
       id="marker6695"
       refX="0"
       refY="0"
       orient="auto"
       inkscape:stockid="Arrow1Mend">
      <path
         transform="matrix(-0.4,0,0,-0.4,-4,0)"
         style="fill-rule:evenodd;stroke:#000000;stroke-width:1pt;marker-start:none"
         d="M 0,0 5,-5 -12.5,0 5,5 0,0 z"
         id="path6697" />
    </marker>
    <marker
       style="overflow:visible"
       id="marker6699"
       refX="0"
       refY="0"
       orient="auto"
       inkscape:stockid="Arrow1Mend">
      <path
         transform="matrix(-0.4,0,0,-0.4,-4,0)"
         style="fill-rule:evenodd;stroke:#000000;stroke-width:1pt;marker-start:none"
         d="M 0,0 5,-5 -12.5,0 5,5 0,0 z"
         id="path6701" />
    </marker>
    <marker
       style="overflow:visible"
       id="Arrow1Mend7"
       refX="0"
       refY="0"
       orient="auto"
       inkscape:stockid="Arrow1Mend7">
      <path
         transform="matrix(-0.4,0,0,-0.4,-4,0)"
         style="marker-start:none;stroke:#999999;stroke-width:1pt;fill:#999999;fill-rule:evenodd"
         d="M 0,0 5,-5 -12.5,0 5,5 0,0 z"
         id="path7480" />
    </marker>
    <marker
       style="overflow:visible"
       id="Arrow1Mendu"
       refX="0"
       refY="0"
       orient="auto"
       inkscape:stockid="Arrow1Mendu">
      <path
         transform="matrix(-0.4,0,0,-0.4,-4,0)"
         style="marker-start:none;stroke:#000000;stroke-width:1pt;fill:#000000;fill-rule:evenodd"
         d="M 0,0 5,-5 -12.5,0 5,5 0,0 z"
         id="path7622" />
    </marker>
    <marker
       style="overflow:visible"
       id="Arrow1MendP"
       refX="0"
       refY="0"
       orient="auto"
       inkscape:stockid="Arrow1MendP">
      <path
         transform="matrix(-0.4,0,0,-0.4,-4,0)"
         style="marker-start:none;stroke:#999999;stroke-width:1pt;fill:#999999;fill-rule:evenodd"
         d="M 0,0 5,-5 -12.5,0 5,5 0,0 z"
         id="path7767" />
    </marker>
    <marker
       style="overflow:visible"
       id="Arrow1MendZ"
       refX="0"
       refY="0"
       orient="auto"
       inkscape:stockid="Arrow1MendZ">
      <path
         transform="matrix(-0.4,0,0,-0.4,-4,0)"
         style="marker-start:none;stroke:#999999;stroke-width:1pt;fill:#999999;fill-rule:evenodd"
         d="M 0,0 5,-5 -12.5,0 5,5 0,0 z"
         id="path7928" />
    </marker>
    <marker
       style="overflow:visible"
       id="Arrow1Mendf"
       refX="0"
       refY="0"
       orient="auto"
       inkscape:stockid="Arrow1Mendf">
      <path
         transform="matrix(-0.4,0,0,-0.4,-4,0)"
         style="marker-start:none;stroke:#999999;stroke-width:1pt;fill:#999999;fill-rule:evenodd"
         d="M 0,0 5,-5 -12.5,0 5,5 0,0 z"
         id="path8089" />
    </marker>
    <marker
       style="overflow:visible"
       id="Arrow1MendfH"
       refX="0"
       refY="0"
       orient="auto"
       inkscape:stockid="Arrow1MendfH">
      <path
         transform="matrix(-0.4,0,0,-0.4,-4,0)"
         style="fill-rule:evenodd;marker-start:none;stroke:#000000;stroke-width:1pt;fill:#000000"
         d="M 0,0 5,-5 -12.5,0 5,5 0,0 z"
         id="path8256" />
    </marker>
    <marker
       style="overflow:visible"
       id="Arrow1MendE"
       refX="0"
       refY="0"
       orient="auto"
       inkscape:stockid="Arrow1MendE">
      <path
         transform="matrix(-0.4,0,0,-0.4,-4,0)"
         style="marker-start:none;stroke:#999999;stroke-width:1pt;fill:#999999;fill-rule:evenodd"
         d="M 0,0 5,-5 -12.5,0 5,5 0,0 z"
         id="path3070" />
    </marker>
  </defs>
  <metadata
     id="metadata4">
    <rdf:RDF>
      <cc:Work
         rdf:about="">
        <dc:format>image/svg+xml</dc:format>
        <dc:type
           rdf:resource="http://purl.org/dc/dcmitype/StillImage" />
        <dc:title />
      </cc:Work>
    </rdf:RDF>
  </metadata>
  <g
     id="layer1"
     inkscape:groupmode="layer"
     inkscape:label="Layer 1">
    <a
       id="a6518"
       transform="matrix(1,0,0,0.675,-195.70353,193.53617)"
       style="fill:#cccccc;fill-opacity:1;stroke:#b3b3b3">
      <rect
         style="fill:#cccccc;fill-opacity:1;stroke:#b3b3b3"
         id="rect6520"
         width="147.48227"
         height="80.812202"
         x="337.39096"
         y="128.0726"
         ry="27.27412" />
    </a>
    <a
       style="fill:#ffcc00;fill-opacity:1;stroke:#b3b3b3"
       transform="matrix(1,0,0,0.675,134.29648,193.53617)"
       id="a6522">
      <rect
         ry="27.27412"
         y="128.0726"
         x="337.39096"
         height="80.812202"
         width="147.48227"
         id="rect6524"
         style="fill:#ffcc00;fill-opacity:1;stroke:#b3b3b3" />
    </a>
    <a
       id="a6526"
       style="fill:#ff8080;stroke:#b3b3b3"
       transform="translate(-36.953517,-62.087437)">
      <rect
         ry="27.27412"
         y="128.0726"
         x="337.39096"
         height="80.812202"
         width="147.48227"
         id="rect6528"
         style="fill:#ff8080;fill-opacity:1;stroke:#b3b3b3" />
    </a>
    <text
       xml:space="preserve"
       style="font-size:28.13495063999999957px;font-style:normal;font-weight:normal;fill:#999999;fill-opacity:1;stroke:none;font-family:Bitstream Vera Sans"
       x="355.42056"
       y="103.08903"
       id="text6530"
       transform="scale(0.86905686,1.1506727)"><tspan
         sodipodi:role="line"
         id="tspan6532"
         x="355.42056"
         y="103.08903">Über Block</tspan></text>
    <path
       style="stroke-linejoin:miter;marker-end:url(#Arrow1MendE);stroke-opacity:1;stroke:#999999;stroke-linecap:butt;stroke-miterlimit:4;stroke-dasharray:none;stroke-width:1.93093037999999995;fill:#999999"
       d="m 373.20901,146.7986 c 0,51.61632 0,51.61632 0,51.61632"
       id="path6534" />
    <a
       id="a6536"
       transform="matrix(1,0,0,0.675,-37.703517,115.53617)"
       style="fill:#cccccc;fill-opacity:1;stroke:#b3b3b3">
      <rect
         style="fill:#cccccc;fill-opacity:1;stroke:#b3b3b3"
         id="rect6538"
         width="147.48227"
         height="80.812202"
         x="337.39096"
         y="128.0726"
         ry="27.27412" />
    </a>
    <path
       style="stroke-linejoin:miter;marker-end:url(#Arrow1MendZ);stroke-opacity:1;stroke:#999999;stroke-linecap:butt;stroke-miterlimit:4;stroke-dasharray:none;stroke-width:1.94053315999999998;fill:#999999"
       d="M 336.38593,229.60016 C 219.25174,278.53615 219.25174,278.53615 219.25174,278.53615"
       id="path6540" />
    <path
       style="stroke-linejoin:miter;marker-end:url(#Arrow1Mendf);stroke-opacity:1;stroke:#999999;stroke-linecap:butt;stroke-miterlimit:4;stroke-dasharray:none;stroke-width:1.95721780999999995;fill:#999999"
       d="m 407.04549,230.61865 134.3711,48.10787"
       id="path6542" />
    <path
       style="stroke-linejoin:miter;opacity:1;marker-end:url(#Arrow1Mend7);stroke-opacity:1;fill-rule:nonzero;marker-start:none;stroke:#999999;stroke-linecap:butt;stroke-miterlimit:4;stroke-dasharray:none;stroke-width:1.92401574999999991;fill:#999999"
       d="m 182.85042,309.39454 -44.09743,50.17323"
       id="path6544" />
    <path
       style="stroke-linejoin:miter;marker-end:url(#Arrow1MendP);stroke-opacity:1;stroke:#999999;stroke-linecap:butt;stroke-miterlimit:4;stroke-dasharray:none;stroke-width:1.96451544999999994;fill:#999999"
       d="m 247.44505,309.4142 48.9183,50.29439"
       id="path6546" />
    <path
       style="fill:none;stroke:#000000;stroke-width:1.93944967;stroke-linecap:butt;stroke-linejoin:miter;stroke-miterlimit:4;stroke-opacity:1;stroke-dasharray:none;marker-end:url(#Arrow1Mend)"
       d="m 516.19363,308.3915 -59.19049,51.55209"
       id="path6548" />
    <path
       style="fill:none;stroke:#000000;stroke-width:1.89823866;stroke-linecap:butt;stroke-linejoin:miter;stroke-miterlimit:4;stroke-opacity:1;stroke-dasharray:none;marker-end:url(#Arrow1Mend)"
       d="m 569.65056,309.38106 53.05093,50.5081"
       id="path6550" />
    <path
       id="path6552"
       d="m 373.21652,201.97608 c -0.0151,54.52278 -0.0151,54.52278 -0.0151,54.52278"
       style="fill:#4d4d4d;stroke:#4d4d4d;stroke-width:2.05212522000000019;stroke-linecap:butt;stroke-linejoin:miter;stroke-miterlimit:4;stroke-opacity:1;stroke-dasharray:2.05212522000000019, 2.05212522000000019;stroke-dashoffset:0;marker-end:none" />
    <path
       style="fill:#000000;stroke:#000000;stroke-width:2.05212522;stroke-linecap:butt;stroke-linejoin:miter;stroke-miterlimit:4;stroke-opacity:1;stroke-dasharray:2.05212522, 2.05212522;stroke-dashoffset:0;marker-end:none"
       d="m 545.21652,279.97608 c -0.0151,54.52278 -0.0151,54.52278 -0.0151,54.52278"
       id="path6554" />
    <path
       id="path6556"
       d="m 215.21653,279.97608 c -0.0151,54.52278 -0.0151,54.52278 -0.0151,54.52278"
       style="fill:#333333;stroke:#333333;stroke-width:2.05212522000000019;stroke-linecap:butt;stroke-linejoin:miter;stroke-miterlimit:4;stroke-opacity:1;stroke-dasharray:2.05212522000000019, 2.05212522000000019;stroke-dashoffset:0;marker-end:none" />
    <a
       style="fill:#cccccc;fill-opacity:1;stroke:#b3b3b3"
       transform="matrix(1,0,0,0.675,-273.70353,275.53617)"
       id="a6558">
      <rect
         ry="27.27412"
         y="128.0726"
         x="337.39096"
         height="80.812202"
         width="147.48227"
         id="rect6560"
         style="fill:#cccccc;fill-opacity:1;stroke:#b3b3b3" />
    </a>
    <path
       style="fill:#4d4d4d;stroke:#4d4d4d;stroke-width:2.05212522000000019;stroke-linecap:butt;stroke-linejoin:miter;stroke-miterlimit:4;stroke-opacity:1;stroke-dasharray:2.05212522000000019, 2.05212522000000019;stroke-dashoffset:0;marker-end:none"
       d="m 137.21653,361.97608 c -0.0151,54.52278 -0.0151,54.52278 -0.0151,54.52278"
       id="path6562" />
    <a
       id="a6564"
       transform="matrix(1,0,0,0.675,-111.70353,275.53617)"
       style="fill:#cccccc;fill-opacity:1;stroke:#b3b3b3">
      <rect
         style="fill:#cccccc;fill-opacity:1;stroke:#b3b3b3"
         id="rect6566"
         width="147.48227"
         height="80.812202"
         x="337.39096"
         y="128.0726"
         ry="27.27412" />
    </a>
    <path
       id="path6568"
       d="m 299.21652,361.97608 c -0.0151,54.52278 -0.0151,54.52278 -0.0151,54.52278"
       style="fill:#000000;stroke:#000000;stroke-width:2.05212522;stroke-linecap:butt;stroke-linejoin:miter;stroke-miterlimit:4;stroke-opacity:1;stroke-dasharray:2.05212522, 2.05212522;stroke-dashoffset:0;marker-end:none" />
    <a
       style="fill:#ffcc00;fill-opacity:1;stroke:#b3b3b3"
       transform="matrix(1,0,0,0.675,44.296483,275.53617)"
       id="a6570">
      <rect
         ry="27.27412"
         y="128.0726"
         x="337.39096"
         height="80.812202"
         width="147.48227"
         id="rect6572"
         style="fill:#ffcc00;fill-opacity:1;stroke:#b3b3b3" />
    </a>
    <path
       style="fill:#000000;stroke:#000000;stroke-width:2.05212522;stroke-linecap:butt;stroke-linejoin:miter;stroke-miterlimit:4;stroke-opacity:1;stroke-dasharray:2.05212522, 2.05212522;stroke-dashoffset:0;marker-end:none"
       d="m 455.21652,361.97608 c -0.0151,54.52278 -0.0151,54.52278 -0.0151,54.52278"
       id="path6574" />
    <a
       id="a6576"
       transform="matrix(1,0,0,0.675,214.29648,275.53617)"
       style="fill:#ffcc00;fill-opacity:1;stroke:#b3b3b3">
      <rect
         style="fill:#ffcc00;fill-opacity:1;stroke:#b3b3b3"
         id="rect6578"
         width="147.48227"
         height="80.812202"
         x="337.39096"
         y="128.0726"
         ry="27.27412" />
    </a>
    <path
       id="path6580"
       d="m 625.21652,361.97608 c -0.0151,54.52278 -0.0151,54.52278 -0.0151,54.52278"
       style="fill:#000000;stroke:#000000;stroke-width:2.05212522;stroke-linecap:butt;stroke-linejoin:miter;stroke-miterlimit:4;stroke-opacity:1;stroke-dasharray:2.05212522, 2.05212522;stroke-dashoffset:0;marker-end:none" />
    <a
       id="a6588"
       transform="matrix(1,0,0,0.675,-257.70353,291.53617)"
       style="fill:#ffcc00;fill-opacity:1;stroke:#b3b3b3">
      <rect
         style="fill:#ffcc00;fill-opacity:1;stroke:#b3b3b3"
         id="rect6590"
         width="147.48227"
         height="80.812202"
         x="337.39096"
         y="128.0726"
         ry="27.27412" />
    </a>
    <path
       id="path6592"
       d="m 153.21653,377.97608 c -0.0151,54.52278 -0.0151,54.52278 -0.0151,54.52278"
       style="fill:#000000;stroke:#000000;stroke-width:2.05212522;stroke-linecap:butt;stroke-linejoin:miter;stroke-miterlimit:4;stroke-opacity:1;stroke-dasharray:2.05212522, 2.05212522;stroke-dashoffset:0;marker-end:none" />
    <a
       style="fill:#ffcc00;fill-opacity:1;stroke:#b3b3b3"
       transform="matrix(1,0,0,0.675,-95.703527,291.53617)"
       id="a6594">
      <rect
         ry="27.27412"
         y="128.0726"
         x="337.39096"
         height="80.812202"
         width="147.48227"
         id="rect6596"
         style="fill:#ffcc00;fill-opacity:1;stroke:#b3b3b3" />
    </a>
    <path
       style="fill:#000000;stroke:#000000;stroke-width:2.05212522;stroke-linecap:butt;stroke-linejoin:miter;stroke-miterlimit:4;stroke-opacity:1;stroke-dasharray:2.05212522, 2.05212522;stroke-dashoffset:0;marker-end:none"
       d="m 315.21652,377.97608 c -0.0151,54.52278 -0.0151,54.52278 -0.0151,54.52278"
       id="path6598" />
    <path
       style="fill:#d45500;stroke:#d45500;stroke-width:2.05212522;stroke-linecap:butt;stroke-linejoin:miter;stroke-miterlimit:4;stroke-opacity:1;stroke-dasharray:none;stroke-dashoffset:0;marker-end:none"
       d="m 191.21653,377.97608 c -0.0151,54.52278 -0.0151,54.52278 -0.0151,54.52278"
       id="path6602" />
    <path
       id="path6608"
       d="m 192.70038,405.34163 0,-26.60734 5.54374,0 c 14.19484,0 25.64865,6.3353 27.73969,15.34329 0.80761,3.47912 0.80761,18.86731 0,22.34644 -0.9069,3.90684 -3.44912,7.29492 -7.47403,9.96085 -5.35856,3.54927 -9.69063,4.78575 -18.208,5.19704 l -7.6014,0.36705 0,-26.60733 z"
       style="fill:#d45500;fill-opacity:1;stroke:#d45500;stroke-width:1.45107162;stroke-miterlimit:4;stroke-dasharray:none;stroke-dashoffset:0" />
    <path
       id="path6632"
       d="m 283.21652,377.97608 c -0.0151,54.52278 -0.0151,54.52278 -0.0151,54.52278"
       style="fill:#d45500;stroke:#d45500;stroke-width:2.05200005;stroke-linecap:butt;stroke-linejoin:miter;stroke-miterlimit:4;stroke-opacity:1;stroke-dasharray:none;stroke-dashoffset:0;marker-end:none" />
    <path
       id="path6634"
       d="m 259.9081,430.63769 c -7.59209,-2.04056 -13.32174,-5.98671 -16.11814,-11.10093 -1.81659,-3.3223 -1.8333,-25.22019 -0.0218,-28.52984 4.48068,-8.18613 14.31259,-12.24279 29.71912,-12.26217 l 8.3085,-0.0105 0,26.51651 0,26.5165 -9.0156,-0.0465 c -5.54988,-0.0286 -10.49811,-0.445 -12.87212,-1.08308 z"
       style="fill:#d45500;fill-opacity:1;stroke:#d45500;stroke-width:1.45098317;stroke-miterlimit:4;stroke-dasharray:none;stroke-dashoffset:0" />
    <a
       style="fill:#d45500;fill-opacity:1;stroke:#b3b3b3"
       transform="matrix(1,0,0,0.675,-179.70353,209.53617)"
       id="a6868">
      <rect
         ry="27.27412"
         y="128.0726"
         x="337.39096"
         height="80.812202"
         width="147.48227"
         id="rect6870"
         style="fill:#d45500;fill-opacity:1;stroke:#b3b3b3" />
    </a>
    <path
       style="fill:#000000;stroke:#000000;stroke-width:2.05212522;stroke-linecap:butt;stroke-linejoin:miter;stroke-miterlimit:4;stroke-opacity:1;stroke-dasharray:2.05212522, 2.05212522;stroke-dashoffset:0;marker-end:none"
       d="m 231.21653,295.97608 c -0.0151,54.52278 -0.0151,54.52278 -0.0151,54.52278"
       id="path6872" />
    <path
       id="path6874"
       d="m 198.85042,325.39454 -44.09743,50.17323"
       style="fill:none;stroke:#000000;stroke-width:1.92520869;stroke-linecap:butt;stroke-linejoin:miter;stroke-miterlimit:4;stroke-opacity:1;stroke-dasharray:none;marker-start:none;marker-end:url(#Arrow1Mend)" />
    <path
       id="path6876"
       d="m 255.44505,325.4142 48.9183,50.29439"
       style="stroke-linejoin:miter;marker-end:url(#Arrow1Mendu);stroke-opacity:1;stroke:#000000;stroke-linecap:butt;stroke-miterlimit:4;stroke-dasharray:none;stroke-width:1.96451545;fill:none" />
    <a
       style="fill:#d45500;fill-opacity:1;stroke:#b3b3b3"
       transform="matrix(1,0,0,0.675,-21.703517,131.53617)"
       id="a7894">
      <rect
         ry="27.27412"
         y="128.0726"
         x="337.39096"
         height="80.812202"
         width="147.48227"
         id="rect7896"
         style="fill:#d45500;fill-opacity:1;stroke:#b3b3b3" />
    </a>
    <path
       style="fill:#000000;stroke:#000000;stroke-width:2.05212522;stroke-linecap:butt;stroke-linejoin:miter;stroke-miterlimit:4;stroke-opacity:1;stroke-dasharray:2.05212522, 2.05212522;stroke-dashoffset:0;marker-end:none"
       d="m 389.21652,217.97608 c -0.0151,54.52278 -0.0151,54.52278 -0.0151,54.52278"
       id="path7898" />
    <path
       id="path7900"
       d="M 352.38593,245.60016 C 235.25174,294.53615 235.25174,294.53615 235.25174,294.53615"
       style="fill:none;stroke:#000000;stroke-width:1.94053316;stroke-linecap:butt;stroke-linejoin:miter;stroke-miterlimit:4;stroke-opacity:1;stroke-dasharray:none;marker-end:url(#Arrow1Mend)" />
    <path
       id="path8224"
       d="m 417.5747,244.71928 124.13012,34.24144"
       style="fill:#000000;stroke:#000000;stroke-width:1.58705771;stroke-linecap:butt;stroke-linejoin:miter;stroke-miterlimit:4;stroke-opacity:1;stroke-dasharray:none;marker-end:url(#Arrow1MendfH)" />
    <a
       transform="translate(-20.953517,-46.087437)"
       style="fill:#ff0000;stroke:#b3b3b3"
       id="a3028">
      <rect
         style="fill:#ff0000;fill-opacity:1;stroke:#b3b3b3"
         id="rect3030"
         width="147.48227"
         height="80.812202"
         x="337.39096"
         y="128.0726"
         ry="27.27412" />
    </a>
    <text
       transform="scale(0.86905686,1.1506727)"
       id="text3032"
       y="116.99393"
       x="373.83145"
       style="font-size:28.13495064px;font-style:normal;font-weight:normal;fill:#000000;fill-opacity:1;stroke:none;font-family:Bitstream Vera Sans"
       xml:space="preserve"><tspan
         y="116.99393"
         x="373.83145"
         id="tspan3034"
         sodipodi:role="line">Über Block</tspan></text>
    <path
       id="path3036"
       d="m 389.20901,162.7986 c 0,51.61632 0,51.61632 0,51.61632"
       style="fill:#000000;stroke:#000000;stroke-width:1.93093038;stroke-linecap:butt;stroke-linejoin:miter;stroke-miterlimit:4;stroke-opacity:1;stroke-dasharray:none;marker-end:url(#Arrow1Mend)" />
  </g>
</svg>
